{
	"page": 10,
	"per_page": 20,
	"total": 33,
	"total_pages": 4,
	"data": [
		{
			"id": 1,
			"email": "michael.lawson@reqres.in",
			"first_name": "Michael",
			"last_name": "Lawson",
			"avatar": "https://reqres.in/img/faces/7-image.jpg"
		},
		{
			"id": 1,
			"email": "michael.lawson@reqres.in",
			"first_name": "Michael",
			"last_name": "Lawson",
			"avatar": "https://reqres.in/img/faces/7-image.jpg"
		},
		{
			"id": 1,
			"email": "michael.lawson@reqres.in",
			"first_name": "Michael",
			"last_name": "Lawson",
			"avatar": "https://reqres.in/img/faces/7-image.jpg"
		},
		{
			"id": 1,
			"email": "michael.lawson@reqres.in",
			"first_name": "Michael",
			"last_name": "Lawson",
			"avatar": "https://reqres.in/img/faces/7-image.jpg"
		},
		{
			"id": 1,
			"email": "michael.lawson@reqres.in",
			"first_name": "Michael",
			"last_name": "Lawson",
			"avatar": "https://reqres.in/img/faces/7-image.jpg"
		},
		{
			"id": 1,
			"email": "michael.lawson@reqres.in",
			"first_name": "Michael",
			"last_name": "Lawson",
			"avatar": "https://reqres.in/img/faces/7-image.jpg"
		},
		{
			"id": 1,
			"email": "michael.lawson@reqres.in",
			"first_name": "Michael",
			"last_name": "Lawson",
			"avatar": "https://reqres.in/img/faces/7-image.jpg"
		},
		{
			"id": 1,
			"email": "michael.lawson@reqres.in",
			"first_name": "Michael",
			"last_name": "Lawson",
			"avatar": "https://reqres.in/img/faces/7-image.jpg"
		},
		{
			"id": 1,
			"email": "michael.lawson@reqres.in",
			"first_name": "Michael",
			"last_name": "Lawson",
			"avatar": "https://reqres.in/img/faces/7-image.jpg"
		},
		{
			"id": 1,
			"email": "michael.lawson@reqres.in",
			"first_name": "Michael",
			"last_name": "Lawson",
			"avatar": "https://reqres.in/img/faces/7-image.jpg"
		},
		{
			"id": 1,
			"email": "michael.lawson@reqres.in",
			"first_name": "Michael",
			"last_name": "Lawson",
			"avatar": "https://reqres.in/img/faces/7-image.jpg"
		},
		{
			"id": 1,
			"email": "michael.lawson@reqres.in",
			"first_name": "Michael",
			"last_name": "Lawson",
			"avatar": "https://reqres.in/img/faces/7-image.jpg"
		},
		{
			"id": 1,
			"email": "michael.lawson@reqres.in",
			"first_name": "Michael",
			"last_name": "Lawson",
			"avatar": "https://reqres.in/img/faces/7-image.jpg"
		}
	]
}